{
    "$schema": "https://go.kicad.org/pcm/schemas/v1",
    "name": "Place Footprints",
    "description": "Arrange footprints on a line, circle or grid.",
    "description_full": "Arrange sequentially numbered footprints or footprints from multiple hierarchical sheets in linear, circular or matrix arrangement. This plugin works on footprints already present in the layout, so that layout and schematics stay in sync.\nThe placement of footprints from multiple hierarchical sheets works well together with ReplicateLayout plugin",
    "identifier": "com.github.MitjaNemec.PlaceFootprints",
    "type": "plugin",
    "author": {
        "name": "Mitja Nemec",
        "contact": {
            "github": "https://github.com/MitjaNemec"
        }
    },
    "license": "GPL-2.0",
    "resources": {
        "homepage": "https://github.com/MitjaNemec/PlaceFootprints"
    },
    "tags": [
        "pcbnew",
        "footprints",
        "arrange"
    ],
    "versions": [ 
        {
            "version": "1.0.0",
            "status": "stable",
            "kicad_version": "6.0",
            "download_url": "https://github.com/MitjaNemec/PlaceFootprints/releases/download/1.0.0/PlaceFootprints-1.0.0-pcm.zip",
            "download_sha256": "a0f9cc1bad02b326daa6f29bbdd54f2ba1725426e89871a8cb23d629b42bb778",
            "download_size": 19370,
            "install_size": 64800,
            "platforms": [
                "linux",
                "macos",
                "windows"
            ]
        },
        {
            "version": "1.1.0",
            "status": "stable",
            "kicad_version": "6.0",
            "kicad_version_max": "6.1",
            "download_url": "https://github.com/MitjaNemec/PlaceFootprints/releases/download/1.1.0/PlaceFootprints-1.1.0-pcm.zip",
            "download_sha256": "d0eb20aba979c0f02c74c5877aeda261c6bfb972309ef75b5801edc1538b1ba8",
            "download_size": 20287,
            "install_size": 69525,
            "platforms": [
                "linux",
                "macos",
                "windows"
            ]
        },
        {
            "version": "1.1.1",
            "status": "stable",
            "kicad_version": "6.0",
            "kicad_version_max": "6.1",
            "download_url": "https://github.com/MitjaNemec/PlaceFootprints/releases/download/1.1.1/PlaceFootprints-1.1.1-pcm.zip",
            "download_sha256": "cbb8b7e067c7ad9096eaf3cbbd94c3a1d3f5ab75f3aa474014ef9f9557f7a064",
            "download_size": 20329,
            "install_size": 69704,
            "platforms": [
                "linux",
                "macos",
                "windows"
            ]
        },
        {
            "version": "1.1.2",
            "status": "stable",
            "kicad_version": "6.0",
            "kicad_version_max": "6.1",
            "download_url": "https://github.com/MitjaNemec/PlaceFootprints/releases/download/1.1.2/PlaceFootprints-1.1.2-pcm.zip",
            "download_sha256": "7d3c82721f1ab3cd02549f8368dfee6555bfd1ef504c8dfc2005bb56ab254cd1",
            "download_size": 20322,
            "install_size": 69555,
            "platforms": [
                "linux",
                "macos",
                "windows"
            ]
        },
        {
            "version": "1.2.0",
            "status": "stable",
            "kicad_version": "6.0",
            "kicad_version_max": "6.1",
            "download_url": "https://github.com/MitjaNemec/PlaceFootprints/releases/download/1.2.0/PlaceFootprints-1.2.0-pcm.zip",
            "download_sha256": "35671a87cbf43d812f7eefd3dc99c72f065e097511da54fff8cdbb7a52f0e60e",
            "download_size": 20713,
            "install_size": 73834,
            "platforms": [
                "linux",
                "macos",
                "windows"
            ]
        },
        {
            "version": "1.2.1",
            "status": "stable",
            "kicad_version": "6.0",
            "kicad_version_max": "6.1",
            "download_url": "https://github.com/MitjaNemec/PlaceFootprints/releases/download/1.2.1/PlaceFootprints-1.2.1-pcm.zip",
            "download_sha256": "865c90ab6229f9c41de4e7976fc1d5574dceed2b09434ba396fce4c301b59673",
            "download_size": 20705,
            "install_size": 73815,
            "platforms": [
                "linux",
                "macos",
                "windows"
            ]
        },
        {
            "version": "1.2.3",
            "status": "stable",
            "kicad_version": "6.0",
            "kicad_version_max": "6.1",
            "download_url": "https://github.com/MitjaNemec/PlaceFootprints/releases/download/1.2.3/PlaceFootprints-1.2.3-pcm.zip",
            "download_sha256": "228655c1e11ef348c88f320d671a3221f19084e1db820e989e23afa6339cf4fd",
            "download_size": 20774,
            "install_size": 74245,
            "platforms": [
                "linux",
                "macos",
                "windows"
            ]
        }
    ]
}

