{
    "$schema": "https://go.kicad.org/pcm/schemas/v1",
    "name": "KiKit Library",
    "description": "A footprint and schematic library for KiKit annotations.",
    "description_full": "KiKit uses these symbols a footprints to annotate your boards (e.g., to place a tab in a panel).",
    "identifier": "com.github.yaqwsx.kikit-library",
    "type": "library",
    "author": {
        "name": "Jan Mr\u00e1zek",
        "contact": {
            "github": "https://github.com/yaqwsx",
            "web": "https://honzamrazek.cz",
            "twitter": "https://twitter.com/yaqwsx_cz"
        }
    },
    "maintainer": {
        "name": "Jan Mr\u00e1zek",
        "contact": {
            "github": "https://github.com/yaqwsx",
            "web": "https://honzamrazek.cz",
            "twitter": "https://twitter.com/yaqwsx_cz"
        }
    },
    "license": "MIT",
    "resources": {
        "homepage": "https://github.com/yaqwsx/KiKit"
    },
    "versions": [
        {
            "version": "1.0.5",
            "status": "stable",
            "kicad_version": "6.0",
            "install_size": 14939,
            "download_sha256": "a7212bedabf5a7e74e30cd2f23468e10d909b11468e1b214479ce6da92969c4e",
            "download_size": 11225,
            "download_url": "https://github.com/yaqwsx/KiKit/releases/download/v1.0.5/pcm-kikit-lib.zip"
        }
    ]
}
