{
    "$schema": "https://go.kicad.org/pcm/schemas/v1",
    "name": "Eagle Dark Theme",
    "description": "Eagle CAD inspired color theme",
    "description_full": "Eagle CAD inspired color theme",
    "identifier": "com.github.pointhi.kicad-color-schemes.eagle-dark",
    "type": "colortheme",
    "author": {
        "name": "Rachel Mant",
        "contact": {
            "web": "https://github.com/DX-MON"
        }
    },
    "maintainer": {
        "name": "Thomas Pointhuber",
        "contact": {
            "web": "https://github.com/pointhi/kicad-color-schemes/"
        }
    },
    "license": "CC0-1.0",
    "resources": {
        "Github": "https://github.com/pointhi/kicad-color-schemes"
    },
    "versions": [
        {
            "version": "1.1",
            "status": "stable",
            "kicad_version": "5.99",
            "download_sha256": "d862b897c8981c17cfc2f77839c82db25bdf8a9a25561e4b38c5a00bbee29ed1",
            "download_size": 6429,
            "download_url": "https://github.com/pointhi/kicad-color-schemes/releases/download/2021-12-05/com.github.pointhi.kicad-color-schemes.eagle-dark_v1.1_pcm.zip",
            "install_size": 10196
        }
    ]
}
